A question about a new article on police shootings | John Hamilton Bradford, Ph.D.
…
tibble::as_tibble(wapo)

## # A tibble: 51 × 7
##    State killed.White killed.Black killed.Hispanic killed.Asian
##    <chr>        <int>        <int>           <int>        <int>
## 1     AK            6            1               0            0
## 2     AL           30           13               0            0
## 3     AR           16            5               0            0
## 4     AZ           49            4              33            0
## 5     CA          116           65             156           15
## 6     CO           30            8              20            2
## 7     CT            5            0               2            0
## 8     DC            1           10               0            0
## 9     DE            4            4               0            0
## 10    FL           66           48              17            1
## # ... with 41 more rows, and 2 more variables:
## #   killed.NativeAmerican <int>, killed.Total <int>
…
tibble::as_tibble(census_state)

## Source: local data frame [51 x 7]
## Groups: State [51]
## 
##    State   Asian   Black Hispanic `Native American`    White    Total
##    <chr>   <int>   <int>    <int>             <int>    <int>    <int>
## 1     AK   74220   40105    41640            143826   496799   796590
## 2     AL   92339 1338287   175866             66733  3268304  4941529
## 3     AR   69177  490231   197047             58338  2226051  3040844
## 4     AZ  331963  403715  1935766            429351  3930262  7031057
## 5     CA 6869486 2989322 14040493           1078986 15788764 40767051
## 6     CO  255130  304298  1068750            148150  3855642  5631970
## 7     CT  197283  466878   473242             40962  2500213  3678578
## 8     DE   44550  228005    70669             12698   615841   971763
## 9     FL  766873 3642783  4622640            203379 11482439 20718114
## 10    GA  491234 3364359   820463            112516  5650933 10439505
## # ... with 41 more rows

III. Combine Data and Calculate Rates per 100,000 Population

wapoRates <- dplyr::left_join(wapo, census_state) %>% dplyr::group_by(State) %>% 
    dplyr::transmute(Total = 1e+05 * killed.Total/Total, White = 1e+05 * killed.White/White, 
        Black = 1e+05 * killed.Black/Black, Hispanic = 1e+05 * killed.Hispanic/Hispanic, 
        `Native American` = 1e+05 * killed.NativeAmerican/`Native American`, 
        Asian = 1e+05 * killed.Asian/Asian)

tibble::as_tibble(wapoRates)

## Source: local data frame [51 x 7]
## Groups: State [51]
## 
##    State     Total     White    Black  Hispanic `Native American`
##    <chr>     <dbl>     <dbl>    <dbl>     <dbl>             <dbl>
## 1     AK 1.6319562 1.2077319 2.493455 0.0000000        3.47642290
## 2     AL 0.9308860 0.9179073 0.971391 0.0000000        0.00000000
## 3     AR 0.8221402 0.7187616 1.019927 0.0000000        0.00000000
## 4     AZ 1.4933743 1.2467362 0.990798 1.7047515        1.86327737
## 5     CA 0.9640138 0.7346997 2.174406 1.1110721        0.09267961
## 6     CO 1.1896370 0.7780805 2.629002 1.8713450        0.67499156
## 7     CT 0.2446598 0.1999830 0.000000 0.4226168        0.00000000
## 8     DC        NA        NA       NA        NA                NA
## 9     DE 0.8232460 0.6495183 1.754347 0.0000000        0.00000000
## 10    FL 0.6757372 0.5747908 1.317674 0.3677552        0.00000000
## # ... with 41 more rows, and 1 more variables: Asian <dbl>
…
